{ 
	"base": "whackSheet",
	"totalFrames": 47,
	"seqList": [
		{ 	"name":"intoDive",
			"loop": false,
			"frames": "44-47"
		},
		{ "name":"bobbing",
			"loop": true,
			"frames": "1-23"
		},
		{ "name":"digging",
			"loop": true,
			"frames": "24-43"
		}
	]
}



